Project1
…
## # A tibble: 4 x 11
##   region population_mean total_mean ev_mean clinton_mean trump_mean
##   <fct>            <dbl>      <dbl>   <dbl>        <dbl>      <dbl>
## 1 North…        6146360        163.   10.7          53.7       40.1
## 2 South         6804378.       247.   11.5          44.0       51.6
## 3 North…        5577250.       152.    9.83         40.5       53  
## 4 West          5534273.       147     9.85         43.6       45.9
## # … with 5 more variables: population_sd <dbl>, total_sd <dbl>, ev_sd <dbl>,
## #   clinton_sd <dbl>, trump_sd <dbl>

project %>% group_by(region) %>% summarize_if(is.numeric, c(mean = mean, 
    sd = sd)) %>% pivot_longer(-region) %>% separate(name, into = c("var", 
    "stat"))

## # A tibble: 40 x 4
##    region    var        stat       value
##    <fct>     <chr>      <chr>      <dbl>
##  1 Northeast population mean  6146360   
##  2 Northeast total      mean      163.  
##  3 Northeast ev         mean       10.7 
##  4 Northeast clinton    mean       53.7 
##  5 Northeast trump      mean       40.1 
##  6 Northeast population sd    6469174.  
##  7 Northeast total      sd        200.  
##  8 Northeast ev         sd          8.94
##  9 Northeast clinton    sd          4.94
## 10 Northeast trump      sd          6.16
## # … with 30 more rows
…
project %>% group_by(region) %>% summarize(median_yearly_murder_rate = median(total))

## # A tibble: 4 x 2
##   region        median_yearly_murder_rate
##   <fct>                             <dbl>
## 1 Northeast                            97
## 2 South                               207
## 3 North Central                        80
## 4 West                                 36

project %>% group_by(state) %>% summarize(avg_votes = mean(ev), 
    n = n()) %>% mutate(state = as.character(state))

## # A tibble: 51 x 3
##    state                avg_votes     n
##    <chr>                    <dbl> <int>
##  1 Alabama                      9     1
##  2 Alaska                       3     1
##  3 Arizona                     11     1
##  4 Arkansas                     6     1
##  5 California                  55     1
##  6 Colorado                     9     1
##  7 Connecticut                  7     1
##  8 Delaware                     3     1
##  9 District of Columbia         3     1
## 10 Florida                     29     1
## # … with 41 more rows
…
